\relax 
\providecommand\zref@newlabel[2]{}
\citation{Slides}
\@writefile{toc}{\contentsline {section}{\numberline {1}Introduction}{\thepage }}
\@writefile{toc}{\contentsline {section}{\numberline {2}Background Research}{\thepage }}
\citation{NCD}
\citation{NCD}
\citation{CCFinder}
\@writefile{toc}{\contentsline {subsection}{\numberline {2.1}Normalised Compression Distance }{\thepage }}
\@writefile{toc}{\contentsline {subsection}{\numberline {2.2}Clone Detection, CCFinder \cite  {CCFinder}}{\thepage }}
\citation{JPlag}
\citation{JPlagOnline}
\@writefile{toc}{\contentsline {subsubsection}{\numberline {2.2.1}CCFinder Empirical Results}{\thepage }}
\@writefile{toc}{\contentsline {subsection}{\numberline {2.3}Plagiarism Detection, JPlag \cite  {JPlag}, \cite  {JPlagOnline}}{\thepage }}
\@writefile{toc}{\contentsline {subsubsection}{\numberline {2.3.1}Technique's Benefits and similarity detection Quality:}{\thepage }}
\@writefile{toc}{\contentsline {subsection}{\numberline {2.4}Latent Semantic Indexing}{\thepage }}
\@writefile{toc}{\contentsline {subsubsection}{\numberline {2.4.1}Implementation of LSI}{\thepage }}
\@writefile{toc}{\contentsline {subsubsection}{\numberline {2.4.2}Benefits of LSI in code similarity measure}{\thepage }}
\@writefile{toc}{\contentsline {subsection}{\numberline {2.5}NICAD, Accurate Detection of Near-Miss Intentional Clones}{\thepage }}
\@writefile{toc}{\contentsline {section}{\numberline {3}Requirements}{\thepage }}
\@writefile{toc}{\contentsline {subsection}{\numberline {3.1}Functional Requirements }{\thepage }}
\@writefile{toc}{\contentsline {section}{\numberline {4}Architecture}{\thepage }}
\@writefile{lof}{\contentsline {figure}{\numberline {1}{\ignorespaces Conceptual Model of the Tool.}}{\thepage }}
\citation{TXL}
\@writefile{toc}{\contentsline {section}{\numberline {5}Implementation}{\thepage }}
\@writefile{toc}{\contentsline {subsection}{\numberline {5.1}TXL}{\thepage }}
\@writefile{toc}{\contentsline {subsection}{\numberline {5.2}Definition of Clones and the Tool's Configuration Settings}{\thepage }}
\@writefile{lof}{\contentsline {figure}{\numberline {2}{\ignorespaces Conceptual Model of the Tool.}}{\thepage }}
\@writefile{toc}{\contentsline {subsubsection}{\numberline {5.2.1}Components}{\thepage }}
\@writefile{toc}{\contentsline {subsection}{\numberline {5.3}Test Harness}{\thepage }}
\@writefile{toc}{\contentsline {section}{\numberline {6}Testing}{\thepage }}
\@writefile{toc}{\contentsline {subsection}{\numberline {6.1}Test Strategy}{\thepage }}
\@writefile{toc}{\contentsline {subsubsection}{\numberline {6.1.1}Test Inputs}{\thepage }}
\@writefile{toc}{\contentsline {subsubsection}{\numberline {6.1.2}Automated Pair-wise Testing}{\thepage }}
\@writefile{toc}{\contentsline {subsubsection}{\numberline {6.1.3}Black-box Testing }{\thepage }}
\@writefile{toc}{\contentsline {section}{\numberline {7}Results, Analysis and Lessons Learnt }{\thepage }}
\@writefile{toc}{\contentsline {subsection}{\numberline {7.1}The Tool's Results }{\thepage }}
\@writefile{lot}{\contentsline {table}{\numberline {1}{\ignorespaces Where Or $\DOTSB \relbar \joinrel \rightarrow $ Original File ; Cl $\DOTSB \relbar \joinrel \rightarrow $ Cloned File ; t $\DOTSB \relbar \joinrel \rightarrow $ type ; th $\DOTSB \relbar \joinrel \rightarrow $ threshold ; md $\DOTSB \relbar \joinrel \rightarrow $ max Distance ; r $\DOTSB \relbar \joinrel \rightarrow $ Result V1 $\DOTSB \relbar \joinrel \rightarrow $ TOHOriginal.in ; V2 $\DOTSB \relbar \joinrel \rightarrow $ TOH-Alex.in ; V3 $\DOTSB \relbar \joinrel \rightarrow $ TOH-Variant.in ; V4 $\DOTSB \relbar \joinrel \rightarrow $ TOH-Imran.in ; V5 $\DOTSB \relbar \joinrel \rightarrow $ TOH-Saheed.in ; V6 $\DOTSB \relbar \joinrel \rightarrow $ TOHRaymond.in ; V7 $\DOTSB \relbar \joinrel \rightarrow $ TOHMichael.in}}{\thepage }}
\@writefile{toc}{\contentsline {subsection}{\numberline {7.2}Analysis of Results }{\thepage }}
\@writefile{toc}{\contentsline {subsection}{\numberline {7.3}Lesson Learnt }{\thepage }}
\@writefile{toc}{\contentsline {section}{\numberline {8}Group Member Contributions}{\thepage }}
\bibcite{Slides}{1}
\bibcite{NCD}{2}
\bibcite{CCFinder}{3}
\bibcite{JPlag}{4}
\bibcite{JPlagOnline}{5}
\bibcite{SVD}{6}
\bibcite{TXL}{7}
\@writefile{toc}{\contentsline {section}{\numberline {9}References}{\thepage }}
\@writefile{toc}{\contentsline {section}{\numberline {A}\\Similarity Percentage for the entire Test Suite}{\thepage }}
\newlabel{App:AppendixA}{{A}{\thepage }}
\gdef \LT@i {\LT@entry 
    {1}{28.5597pt}\LT@entry 
    {1}{121.29846pt}\LT@entry 
    {1}{121.29846pt}\LT@entry 
    {1}{70.90308pt}\LT@entry 
    {1}{70.90308pt}\LT@entry 
    {1}{70.90308pt}\LT@entry 
    {1}{70.90308pt}}
\@writefile{lot}{\contentsline {table}{\numberline {2}{Type: 1 - Threshold: 3 MaxD: 1 }}{\thepage }}
\newlabel{tab:myfirstlongtable}{{2}{\thepage }}
\gdef \LT@ii {\LT@entry 
    {1}{28.5597pt}\LT@entry 
    {1}{121.29846pt}\LT@entry 
    {1}{121.29846pt}\LT@entry 
    {1}{70.90308pt}\LT@entry 
    {1}{70.90308pt}\LT@entry 
    {1}{70.90308pt}\LT@entry 
    {1}{70.90308pt}}
\@writefile{lot}{\contentsline {table}{\numberline {3}{Type: 2 - Threshold: 3 MaxD: 1 }}{\thepage }}
\newlabel{tab:myfirstlongtable}{{3}{\thepage }}
\gdef \LT@iii {\LT@entry 
    {1}{28.5597pt}\LT@entry 
    {1}{121.29846pt}\LT@entry 
    {1}{121.29846pt}\LT@entry 
    {1}{70.90308pt}\LT@entry 
    {1}{70.90308pt}\LT@entry 
    {1}{70.90308pt}\LT@entry 
    {1}{70.90308pt}}
\@writefile{lot}{\contentsline {table}{\numberline {4}{Type: 3a - Threshold: 3 MaxD: 6 }}{\thepage }}
\newlabel{tab:myfirstlongtable}{{4}{\thepage }}
\gdef \LT@iv {\LT@entry 
    {1}{28.5597pt}\LT@entry 
    {1}{121.29846pt}\LT@entry 
    {1}{121.29846pt}\LT@entry 
    {1}{70.90308pt}\LT@entry 
    {1}{70.90308pt}\LT@entry 
    {1}{70.90308pt}\LT@entry 
    {1}{70.90308pt}}
\@writefile{lot}{\contentsline {table}{\numberline {5}{Type: 3b - Threshold: 3 MaxD: 6 }}{\thepage }}
\newlabel{tab:myfirstlongtable}{{5}{\thepage }}
\gdef \LT@v {\LT@entry 
    {1}{28.5597pt}\LT@entry 
    {1}{121.29846pt}\LT@entry 
    {1}{121.29846pt}\LT@entry 
    {1}{70.90308pt}\LT@entry 
    {1}{70.90308pt}\LT@entry 
    {1}{70.90308pt}\LT@entry 
    {1}{70.90308pt}}
\@writefile{lot}{\contentsline {table}{\numberline {6}{Type: 1 - Threshold: 6 MaxD: 1 }}{\thepage }}
\newlabel{tab:myfirstlongtable}{{6}{\thepage }}
\gdef \LT@vi {\LT@entry 
    {1}{28.5597pt}\LT@entry 
    {1}{121.29846pt}\LT@entry 
    {1}{121.29846pt}\LT@entry 
    {1}{70.90308pt}\LT@entry 
    {1}{70.90308pt}\LT@entry 
    {1}{70.90308pt}\LT@entry 
    {1}{70.90308pt}}
\@writefile{lot}{\contentsline {table}{\numberline {7}{Type: 2 - Threshold: 6 MaxD: 1 }}{\thepage }}
\newlabel{tab:myfirstlongtable}{{7}{\thepage }}
\gdef \LT@vii {\LT@entry 
    {1}{28.5597pt}\LT@entry 
    {1}{121.29846pt}\LT@entry 
    {1}{121.29846pt}\LT@entry 
    {1}{70.90308pt}\LT@entry 
    {1}{70.90308pt}\LT@entry 
    {1}{70.90308pt}\LT@entry 
    {1}{70.90308pt}}
\@writefile{lot}{\contentsline {table}{\numberline {8}{Type: 3a - Threshold: 6 MaxD: 6 }}{\thepage }}
\newlabel{tab:myfirstlongtable}{{8}{\thepage }}
\gdef \LT@viii {\LT@entry 
    {1}{28.5597pt}\LT@entry 
    {1}{121.29846pt}\LT@entry 
    {1}{121.29846pt}\LT@entry 
    {1}{70.90308pt}\LT@entry 
    {1}{70.90308pt}\LT@entry 
    {1}{70.90308pt}\LT@entry 
    {1}{70.90308pt}}
\@writefile{lot}{\contentsline {table}{\numberline {9}{Type: 3b - Threshold: 6 MaxD: 6 }}{\thepage }}
\newlabel{tab:myfirstlongtable}{{9}{\thepage }}
